lab3/task4/challenge.vcd
$version Generated by VerilatedVcd $end
$date Fri Nov  1 23:42:24 2024 $end
$timescale 1ps $end

 $scope module TOP $end
  $var wire  5 . N [4:0] $end
  $var wire  1 ) clk $end
  $var wire  1 , cmd_delay $end
  $var wire  1 1 cmd_delay_output $end
  $var wire  1 + cmd_seq $end
  $var wire  1 0 cmd_seq_output $end
  $var wire  8 / data_out [7:0] $end
  $var wire  1 * rst $end
  $var wire  1 - trigger $end
  $scope module top $end
   $var wire  5 . N [4:0] $end
   $var wire 32 6 WIDTH [31:0] $end
   $var wire  1 ) clk $end
   $var wire  1 , cmd_delay $end
   $var wire  1 1 cmd_delay_output $end
   $var wire  1 + cmd_seq $end
   $var wire  1 0 cmd_seq_output $end
   $var wire  8 / data_out [7:0] $end
   $var wire  1 3 fsmEnable $end
   $var wire  7 2 lfsrToDelay [7:1] $end
   $var wire  1 * rst $end
   $var wire  1 # tick $end
   $var wire  1 $ timeout $end
   $var wire  1 - trigger $end
   $scope module myClock $end
    $var wire  5 . N [4:0] $end
    $var wire 32 6 WIDTH [31:0] $end
    $var wire  1 ) clk $end
    $var wire  5 % count [4:0] $end
    $var wire  1 + en $end
    $var wire  1 * rst $end
    $var wire  1 # tick $end
   $upscope $end
   $scope module myDelay $end
    $var wire 32 7 WIDTH [31:0] $end
    $var wire  1 ) clk $end
    $var wire  7 & count [6:0] $end
    $var wire 32 ' current_state [31:0] $end
    $var wire  7 2 n [6:0] $end
    $var wire 32 4 next_state [31:0] $end
    $var wire  1 * rst $end
    $var wire  1 $ time_out $end
    $var wire  1 , trigger $end
   $upscope $end
   $scope module myF1 $end
    $var wire  1 ) clk $end
    $var wire  1 1 cmd_delay $end
    $var wire  1 0 cmd_seq $end
    $var wire 32 ( current_state [31:0] $end
    $var wire  8 / data_out [7:0] $end
    $var wire  1 3 en $end
    $var wire 32 5 next_state [31:0] $end
    $var wire  1 * rst $end
    $var wire  1 - trigger $end
   $upscope $end
   $scope module myLFSR $end
    $var wire  1 ) clk $end
    $var wire  7 2 data_out [7:1] $end
    $var wire  1 * rst $end
    $var wire  7 2 sreg [7:1] $end
   $upscope $end
  $upscope $end
 $upscope $end
$enddefinitions $end


#0
0#
0$
b00000 %
b0000000 &
b00000000000000000000000000000000 '
b00000000000000000000000000000000 (
1)
1*
1+
0,
0-
b11110 .
b00000000 /
00
01
b0000000 2
03
b00000000000000000000000000000000 4
b00000000000000000000000000000000 5
b00000000000000000000000000000101 6
b00000000000000000000000000000111 7
#1
0)
10
#2
b11110 %
b1111111 &
1)
b0000001 2
#3
0)
#4
b0000000 &
1)
#5
0)
#6
1)
0*
#7
0)
#8
b11101 %
1)
b0000010 2
#9
0)
#10
b11100 %
b0000001 &
1)
b0000100 2
#11
0)
#12
b11011 %
b0000000 &
1)
b0001001 2
#13
0)
#14
b11010 %
b0001000 &
1)
b0010010 2
#15
0)
#16
b11001 %
b0000111 &
1)
b0100100 2
#17
0)
#18
b11000 %
b0000110 &
1)
b1001001 2
#19
0)
#20
b10111 %
b0000101 &
1)
b0010011 2
#21
0)
#22
b10110 %
b0000100 &
1)
b0100110 2
#23
0)
#24
b10101 %
b0000011 &
1)
b1001101 2
#25
0)
#26
b10100 %
b0000010 &
1)
b0011010 2
#27
0)
#28
b10011 %
b0000001 &
1)
b0110100 2
#29
0)
#30
b10010 %
b0000000 &
1)
b1101001 2
#31
0)
#32
b10001 %
b1101000 &
1)
b1010011 2
#33
0)
#34
b10000 %
b1100111 &
1)
b0100111 2
#35
0)
#36
b01111 %
b1100110 &
1)
b1001111 2
#37
0)
#38
b01110 %
b1100101 &
1)
b0011110 2
#39
0)
#40
b01101 %
b1100100 &
1)
b0111101 2
#41
0)
#42
b01100 %
b1100011 &
1)
b1111011 2
#43
0)
#44
b01011 %
b1100010 &
1)
b1110111 2
#45
0)
#46
b01010 %
b1100001 &
1)
b1101110 2
#47
0)
#48
b01001 %
b1100000 &
1)
b1011100 2
#49
0)
#50
b01000 %
b1011111 &
1)
b0111000 2
#51
0)
#52
b00111 %
b1011110 &
1)
b1110000 2
#53
0)
#54
b00110 %
b1011101 &
1)
b1100001 2
#55
0)
#56
b00101 %
b1011100 &
1)
b1000011 2
#57
0)
#58
b00100 %
b1011011 &
1)
b0000111 2
#59
0)
#60
b00011 %
b1011010 &
1)
b0001111 2
#61
0)
#62
b00010 %
b1011001 &
1)
b0011111 2
#63
0)
#64
b00001 %
b1011000 &
1)
b0111111 2
#65
0)
#66
b00000 %
b1010111 &
1)
b1111111 2
#67
0)
#68
1#
b11110 %
b1010110 &
1)
b1111110 2
13
b00000000000000000000000000000001 5
#69
0)
#70
0#
b11101 %
b1010101 &
b00000000000000000000000000000001 (
1)
b00000001 /
b1111100 2
03
#71
0)
#72
b11100 %
b1010100 &
1)
b1111000 2
#73
0)
#74
b11011 %
b1010011 &
1)
b1110001 2
#75
0)
#76
b11010 %
b1010010 &
1)
b1100011 2
#77
0)
#78
b11001 %
b1010001 &
1)
b1000111 2
#79
0)
#80
b11000 %
b1010000 &
1)
b0001110 2
#81
0)
#82
b10111 %
b1001111 &
1)
b0011101 2
#83
0)
#84
b10110 %
b1001110 &
1)
b0111011 2
#85
0)
#86
b10101 %
b1001101 &
1)
b1110110 2
#87
0)
#88
b10100 %
b1001100 &
1)
b1101100 2
#89
0)
#90
b10011 %
b1001011 &
1)
b1011000 2
#91
0)
#92
b10010 %
b1001010 &
1)
b0110001 2
#93
0)
#94
b10001 %
b1001001 &
1)
b1100010 2
#95
0)
#96
b10000 %
b1001000 &
1)
b1000101 2
#97
0)
#98
b01111 %
b1000111 &
1)
b0001010 2
#99
0)
#100
b01110 %
b1000110 &
1)
b0010100 2
#101
0)
#102
b01101 %
b1000101 &
1)
b0101001 2
#103
0)
#104
b01100 %
b1000100 &
1)
b1010010 2
#105
0)
#106
b01011 %
b1000011 &
1)
b0100101 2
#107
0)
#108
b01010 %
b1000010 &
1)
b1001011 2
#109
0)
#110
b01001 %
b1000001 &
1)
b0010111 2
#111
0)
#112
b01000 %
b1000000 &
1)
b0101111 2
#113
0)
#114
b00111 %
b0111111 &
1)
b1011111 2
#115
0)
#116
b00110 %
b0111110 &
1)
b0111110 2
#117
0)
#118
b00101 %
b0111101 &
1)
b1111101 2
#119
0)
#120
b00100 %
b0111100 &
1)
b1111010 2
#121
0)
#122
b00011 %
b0111011 &
1)
b1110101 2
#123
0)
#124
b00010 %
b0111010 &
1)
b1101010 2
#125
0)
#126
b00001 %
b0111001 &
1)
b1010101 2
#127
0)
#128
b00000 %
b0111000 &
1)
b0101010 2
#129
0)
#130
1#
b11110 %
b0110111 &
1)
b1010100 2
13
b00000000000000000000000000000010 5
#131
0)
#132
0#
b11101 %
b0110110 &
b00000000000000000000000000000010 (
1)
b00000011 /
b0101000 2
03
#133
0)
#134
b11100 %
b0110101 &
1)
b1010000 2
#135
0)
#136
b11011 %
b0110100 &
1)
b0100001 2
#137
0)
#138
b11010 %
b0110011 &
1)
b1000010 2
#139
0)
#140
b11001 %
b0110010 &
1)
b0000101 2
#141
0)
#142
b11000 %
b0110001 &
1)
b0001011 2
#143
0)
#144
b10111 %
b0110000 &
1)
b0010110 2
#145
0)
#146
b10110 %
b0101111 &
1)
b0101101 2
#147
0)
#148
b10101 %
b0101110 &
1)
b1011011 2
#149
0)
#150
b10100 %
b0101101 &
1)
b0110111 2
#151
0)
#152
b10011 %
b0101100 &
1)
b1101111 2
#153
0)
#154
b10010 %
b0101011 &
1)
b1011110 2
#155
0)
#156
b10001 %
b0101010 &
1)
b0111100 2
#157
0)
#158
b10000 %
b0101001 &
1)
b1111001 2
#159
0)
#160
b01111 %
b0101000 &
1)
b1110011 2
#161
0)
#162
b01110 %
b0100111 &
1)
b1100111 2
#163
0)
#164
b01101 %
b0100110 &
1)
b1001110 2
#165
0)
#166
b01100 %
b0100101 &
1)
b0011100 2
#167
0)
#168
b01011 %
b0100100 &
1)
b0111001 2
#169
0)
#170
b01010 %
b0100011 &
1)
b1110010 2
#171
0)
#172
b01001 %
b0100010 &
1)
b1100101 2
#173
0)
#174
b01000 %
b0100001 &
1)
b1001010 2
#175
0)
#176
b00111 %
b0100000 &
1)
b0010101 2
#177
0)
#178
b00110 %
b0011111 &
1)
b0101011 2
#179
0)
#180
b00101 %
b0011110 &
1)
b1010110 2
#181
0)
#182
b00100 %
b0011101 &
1)
b0101100 2
#183
0)
#184
b00011 %
b0011100 &
1)
b1011001 2
#185
0)
#186
b00010 %
b0011011 &
1)
b0110011 2
#187
0)
#188
b00001 %
b0011010 &
1)
b1100110 2
#189
0)
#190
b00000 %
b0011001 &
1)
b1001100 2
#191
0)
#192
1#
b11110 %
b0011000 &
1)
b0011000 2
13
b00000000000000000000000000000011 5
#193
0)
#194
0#
b11101 %
b0010111 &
b00000000000000000000000000000011 (
1)
b00000111 /
b0110000 2
03
#195
0)
#196
b11100 %
b0010110 &
1)
b1100000 2
#197
0)
#198
b11011 %
b0010101 &
1)
b1000001 2
#199
0)
#200
b11010 %
b0010100 &
1)
b0000011 2
#201
0)
#202
b11001 %
b0010011 &
1)
b0000110 2
#203
0)
#204
b11000 %
b0010010 &
1)
b0001101 2
#205
0)
#206
b10111 %
b0010001 &
1)
b0011011 2
#207
0)
#208
b10110 %
b0010000 &
1)
b0110110 2
#209
0)
#210
b10101 %
b0001111 &
1)
b1101101 2
#211
0)
#212
b10100 %
b0001110 &
1)
b1011010 2
#213
0)
#214
b10011 %
b0001101 &
1)
b0110101 2
#215
0)
#216
b10010 %
b0001100 &
1)
b1101011 2
#217
0)
#218
b10001 %
b0001011 &
1)
b1010111 2
#219
0)
#220
b10000 %
b0001010 &
1)
b0101110 2
#221
0)
#222
b01111 %
b0001001 &
1)
b1011101 2
#223
0)
#224
b01110 %
b0001000 &
1)
b0111010 2
#225
0)
#226
b01101 %
b0000111 &
1)
b1110100 2
#227
0)
#228
b01100 %
b0000110 &
1)
b1101000 2
#229
0)
#230
b01011 %
b0000101 &
1)
b1010001 2
#231
0)
#232
b01010 %
b0000100 &
1)
b0100011 2
#233
0)
#234
b01001 %
b0000011 &
1)
b1000110 2
#235
0)
#236
b01000 %
b0000010 &
1)
b0001100 2
#237
0)
#238
b00111 %
b0000001 &
1)
b0011001 2
#239
0)
#240
b00110 %
b0000000 &
1)
b0110010 2
#241
0)
#242
b00101 %
b0110001 &
1)
b1100100 2
#243
0)
#244
b00100 %
b0110000 &
1)
b1001000 2
#245
0)
#246
b00011 %
b0101111 &
1)
b0010001 2
#247
0)
#248
b00010 %
b0101110 &
1)
b0100010 2
#249
0)
#250
b00001 %
b0101101 &
1)
b1000100 2
#251
0)
#252
b00000 %
b0101100 &
1)
b0001000 2
#253
0)
#254
1#
b11110 %
b0101011 &
1)
b0010000 2
13
b00000000000000000000000000000100 5
#255
0)
#256
0#
b11101 %
b0101010 &
b00000000000000000000000000000100 (
1)
b00001111 /
b0100000 2
03
#257
0)
#258
b11100 %
b0101001 &
1)
b1000000 2
#259
0)
#260
b11011 %
b0101000 &
1)
b0000001 2
#261
0)
#262
b11010 %
b0100111 &
1)
b0000010 2
#263
0)
#264
b11001 %
b0100110 &
1)
b0000100 2
#265
0)
#266
b11000 %
b0100101 &
1)
b0001001 2
#267
0)
#268
b10111 %
b0100100 &
1)
b0010010 2
#269
0)
#270
b10110 %
b0100011 &
1)
b0100100 2
#271
0)
#272
b10101 %
b0100010 &
1)
b1001001 2
#273
0)
#274
b10100 %
b0100001 &
1)
b0010011 2
#275
0)
#276
b10011 %
b0100000 &
1)
b0100110 2
#277
0)
#278
b10010 %
b0011111 &
1)
b1001101 2
#279
0)
#280
b10001 %
b0011110 &
1)
b0011010 2
#281
0)
#282
b10000 %
b0011101 &
1)
b0110100 2
#283
0)
#284
b01111 %
b0011100 &
1)
b1101001 2
#285
0)
#286
b01110 %
b0011011 &
1)
b1010011 2
#287
0)
#288
b01101 %
b0011010 &
1)
b0100111 2
#289
0)
#290
b01100 %
b0011001 &
1)
b1001111 2
#291
0)
#292
b01011 %
b0011000 &
1)
b0011110 2
#293
0)
#294
b01010 %
b0010111 &
1)
b0111101 2
#295
0)
#296
b01001 %
b0010110 &
1)
b1111011 2
#297
0)
#298
b01000 %
b0010101 &
1)
b1110111 2
#299
0)
#300
b00111 %
b0010100 &
1)
b1101110 2
#301
0)
#302
b00110 %
b0010011 &
1)
b1011100 2
#303
0)
#304
b00101 %
b0010010 &
1)
b0111000 2
#305
0)
#306
b00100 %
b0010001 &
1)
b1110000 2
#307
0)
#308
b00011 %
b0010000 &
1)
b1100001 2
#309
0)
#310
b00010 %
b0001111 &
1)
b1000011 2
#311
0)
#312
b00001 %
b0001110 &
1)
b0000111 2
#313
0)
#314
b00000 %
b0001101 &
1)
b0001111 2
#315
0)
#316
1#
b11110 %
b0001100 &
1)
b0011111 2
13
b00000000000000000000000000000101 5
#317
0)
#318
0#
b11101 %
b0001011 &
b00000000000000000000000000000101 (
1)
b00011111 /
b0111111 2
03
#319
0)
#320
b11100 %
b0001010 &
1)
b1111111 2
#321
0)
#322
b11011 %
b0001001 &
1)
b1111110 2
#323
0)
#324
b11010 %
b0001000 &
1)
b1111100 2
#325
0)
#326
b11001 %
b0000111 &
1)
b1111000 2
#327
0)
#328
b11000 %
b0000110 &
1)
b1110001 2
#329
0)
#330
b10111 %
b0000101 &
1)
b1100011 2
#331
0)
#332
b10110 %
b0000100 &
1)
b1000111 2
#333
0)
#334
b10101 %
b0000011 &
1)
b0001110 2
#335
0)
#336
b10100 %
b0000010 &
1)
b0011101 2
#337
0)
#338
b10011 %
b0000001 &
1)
b0111011 2
#339
0)
#340
b10010 %
b0000000 &
1)
b1110110 2
#341
0)
#342
b10001 %
b1110101 &
1)
b1101100 2
#343
0)
#344
b10000 %
b1110100 &
1)
b1011000 2
#345
0)
#346
b01111 %
b1110011 &
1)
b0110001 2
#347
0)
#348
b01110 %
b1110010 &
1)
b1100010 2
#349
0)
#350
b01101 %
b1110001 &
1)
b1000101 2
#351
0)
#352
b01100 %
b1110000 &
1)
b0001010 2
#353
0)
#354
b01011 %
b1101111 &
1)
b0010100 2
#355
0)
#356
b01010 %
b1101110 &
1)
b0101001 2
#357
0)
#358
b01001 %
b1101101 &
1)
b1010010 2
#359
0)
#360
b01000 %
b1101100 &
1)
b0100101 2
#361
0)
#362
b00111 %
b1101011 &
1)
b1001011 2
#363
0)
#364
b00110 %
b1101010 &
1)
b0010111 2
#365
0)
#366
b00101 %
b1101001 &
1)
b0101111 2
#367
0)
#368
b00100 %
b1101000 &
1)
b1011111 2
#369
0)
#370
b00011 %
b1100111 &
1)
b0111110 2
#371
0)
#372
b00010 %
b1100110 &
1)
b1111101 2
#373
0)
#374
b00001 %
b1100101 &
1)
b1111010 2
#375
0)
#376
b00000 %
b1100100 &
1)
b1110101 2
#377
0)
#378
1#
b11110 %
b1100011 &
1)
b1101010 2
13
b00000000000000000000000000000110 5
#379
0)
#380
0#
b11101 %
b1100010 &
b00000000000000000000000000000110 (
1)
b00111111 /
b1010101 2
03
#381
0)
#382
b11100 %
b1100001 &
1)
b0101010 2
#383
0)
#384
b11011 %
b1100000 &
1)
b1010100 2
#385
0)
#386
b11010 %
b1011111 &
1)
b0101000 2
#387
0)
#388
b11001 %
b1011110 &
1)
b1010000 2
#389
0)
#390
b11000 %
b1011101 &
1)
b0100001 2
#391
0)
#392
b10111 %
b1011100 &
1)
b1000010 2
#393
0)
#394
b10110 %
b1011011 &
1)
b0000101 2
#395
0)
#396
b10101 %
b1011010 &
1)
b0001011 2
#397
0)
#398
b10100 %
b1011001 &
1)
b0010110 2
#399
0)
#400
b10011 %
b1011000 &
1)
b0101101 2
#401
0)
#402
b10010 %
b1010111 &
1)
b1011011 2
#403
0)
#404
b10001 %
b1010110 &
1)
b0110111 2
#405
0)
#406
b10000 %
b1010101 &
1)
b1101111 2
#407
0)
#408
b01111 %
b1010100 &
1)
b1011110 2
#409
0)
#410
b01110 %
b1010011 &
1)
b0111100 2
#411
0)
#412
b01101 %
b1010010 &
1)
b1111001 2
#413
0)
#414
b01100 %
b1010001 &
1)
b1110011 2
#415
0)
#416
b01011 %
b1010000 &
1)
b1100111 2
#417
0)
#418
b01010 %
b1001111 &
1)
b1001110 2
#419
0)
#420
b01001 %
b1001110 &
1)
b0011100 2
#421
0)
#422
b01000 %
b1001101 &
1)
b0111001 2
#423
0)
#424
b00111 %
b1001100 &
1)
b1110010 2
#425
0)
#426
b00110 %
b1001011 &
1)
b1100101 2
#427
0)
#428
b00101 %
b1001010 &
1)
b1001010 2
#429
0)
#430
b00100 %
b1001001 &
1)
b0010101 2
#431
0)
#432
b00011 %
b1001000 &
1)
b0101011 2
#433
0)
#434
b00010 %
b1000111 &
1)
b1010110 2
#435
0)
#436
b00001 %
b1000110 &
1)
b0101100 2
#437
0)
#438
b00000 %
b1000101 &
1)
b1011001 2
#439
0)
#440
1#
b11110 %
b1000100 &
1)
b0110011 2
13
b00000000000000000000000000000111 5
#441
0)
#442
0#
b11101 %
b1000011 &
b00000000000000000000000000000111 (
1)
b01111111 /
b1100110 2
03
#443
0)
#444
b11100 %
b1000010 &
1)
b1001100 2
#445
0)
#446
b11011 %
b1000001 &
1)
b0011000 2
#447
0)
#448
b11010 %
b1000000 &
1)
b0110000 2
#449
0)
#450
b11001 %
b0111111 &
1)
b1100000 2
#451
0)
#452
b11000 %
b0111110 &
1)
b1000001 2
#453
0)
#454
b10111 %
b0111101 &
1)
b0000011 2
#455
0)
#456
b10110 %
b0111100 &
1)
b0000110 2
#457
0)
#458
b10101 %
b0111011 &
1)
b0001101 2
#459
0)
#460
b10100 %
b0111010 &
1)
b0011011 2
#461
0)
#462
b10011 %
b0111001 &
1)
b0110110 2
#463
0)
#464
b10010 %
b0111000 &
1)
b1101101 2
#465
0)
#466
b10001 %
b0110111 &
1)
b1011010 2
#467
0)
#468
b10000 %
b0110110 &
1)
b0110101 2
#469
0)
#470
b01111 %
b0110101 &
1)
b1101011 2
#471
0)
#472
b01110 %
b0110100 &
1)
b1010111 2
#473
0)
#474
b01101 %
b0110011 &
1)
b0101110 2
#475
0)
#476
b01100 %
b0110010 &
1)
b1011101 2
#477
0)
#478
b01011 %
b0110001 &
1)
b0111010 2
#479
0)
#480
b01010 %
b0110000 &
1)
b1110100 2
#481
0)
#482
b01001 %
b0101111 &
1)
b1101000 2
#483
0)
#484
b01000 %
b0101110 &
1)
b1010001 2
#485
0)
#486
b00111 %
b0101101 &
1)
b0100011 2
#487
0)
#488
b00110 %
b0101100 &
1)
b1000110 2
#489
0)
#490
b00101 %
b0101011 &
1)
b0001100 2
#491
0)
#492
b00100 %
b0101010 &
1)
b0011001 2
#493
0)
#494
b00011 %
b0101001 &
1)
b0110010 2
#495
0)
#496
b00010 %
b0101000 &
1)
b1100100 2
#497
0)
#498
b00001 %
b0100111 &
1)
b1001000 2
#499
0)
#500
b00000 %
b0100110 &
1)
b0010001 2
#501
0)
#502
1#
b11110 %
b0100101 &
1)
b0100010 2
13
b00000000000000000000000000001000 5
#503
0)
#504
0#
b11101 %
b0100100 &
b00000000000000000000000000001000 (
1)
0+
1,
b11111111 /
00
11
b1000100 2
03
b00000000000000000000000000000001 4
#505
0)
#506
b1000011 &
b00000000000000000000000000000001 '
1)
0,
b0001000 2
#507
0)
#508
b1000010 &
1)
b0010000 2
#509
0)
#510
b1000001 &
1)
b0100000 2
#511
0)
#512
b1000000 &
1)
b1000000 2
#513
0)
#514
b0111111 &
1)
b0000001 2
#515
0)
#516
b0111110 &
1)
b0000010 2
#517
0)
#518
b0111101 &
1)
b0000100 2
#519
0)
#520
b0111100 &
1)
b0001001 2
#521
0)
#522
b0111011 &
1)
b0010010 2
#523
0)
#524
b0111010 &
1)
b0100100 2
#525
0)
#526
b0111001 &
1)
b1001001 2
#527
0)
#528
b0111000 &
1)
b0010011 2
#529
0)
#530
b0110111 &
1)
b0100110 2
#531
0)
#532
b0110110 &
1)
b1001101 2
#533
0)
#534
b0110101 &
1)
b0011010 2
#535
0)
#536
b0110100 &
1)
b0110100 2
#537
0)
#538
b0110011 &
1)
b1101001 2
#539
0)
#540
b0110010 &
1)
b1010011 2
#541
0)
#542
b0110001 &
1)
b0100111 2
#543
0)
#544
b0110000 &
1)
b1001111 2
#545
0)
#546
b0101111 &
1)
b0011110 2
#547
0)
#548
b0101110 &
1)
b0111101 2
#549
0)
#550
b0101101 &
1)
b1111011 2
#551
0)
#552
b0101100 &
1)
b1110111 2
#553
0)
#554
b0101011 &
1)
b1101110 2
#555
0)
#556
b0101010 &
1)
b1011100 2
#557
0)
#558
b0101001 &
1)
b0111000 2
#559
0)
#560
b0101000 &
1)
b1110000 2
#561
0)
#562
b0100111 &
1)
b1100001 2
#563
0)
#564
b0100110 &
1)
b1000011 2
#565
0)
#566
b0100101 &
1)
b0000111 2
#567
0)
#568
b0100100 &
1)
b0001111 2
#569
0)
#570
b0100011 &
1)
b0011111 2
#571
0)
#572
b0100010 &
1)
b0111111 2
#573
0)
#574
b0100001 &
1)
b1111111 2
#575
0)
#576
b0100000 &
1)
b1111110 2
#577
0)
#578
b0011111 &
1)
b1111100 2
#579
0)
#580
b0011110 &
1)
b1111000 2
#581
0)
#582
b0011101 &
1)
b1110001 2
#583
0)
#584
b0011100 &
1)
b1100011 2
#585
0)
#586
b0011011 &
1)
b1000111 2
#587
0)
#588
b0011010 &
1)
b0001110 2
#589
0)
#590
b0011001 &
1)
b0011101 2
#591
0)
#592
b0011000 &
1)
b0111011 2
#593
0)
#594
b0010111 &
1)
b1110110 2
#595
0)
#596
b0010110 &
1)
b1101100 2
#597
0)
#598
b0010101 &
1)
b1011000 2
#599
0)
#600
b0010100 &
1)
b0110001 2
#601
0)
#602
b0010011 &
1)
b1100010 2
#603
0)
#604
b0010010 &
1)
b1000101 2
#605
0)
#606
b0010001 &
1)
b0001010 2
#607
0)
#608
b0010000 &
1)
b0010100 2
#609
0)
#610
b0001111 &
1)
b0101001 2
#611
0)
#612
b0001110 &
1)
b1010010 2
#613
0)
#614
b0001101 &
1)
b0100101 2
#615
0)
#616
b0001100 &
1)
b1001011 2
#617
0)
#618
b0001011 &
1)
b0010111 2
#619
0)
#620
b0001010 &
1)
b0101111 2
#621
0)
#622
b0001001 &
1)
b1011111 2
#623
0)
#624
b0001000 &
1)
b0111110 2
#625
0)
#626
b0000111 &
1)
b1111101 2
#627
0)
#628
b0000110 &
1)
b1111010 2
#629
0)
#630
b0000101 &
1)
b1110101 2
#631
0)
#632
b0000100 &
1)
b1101010 2
#633
0)
#634
b0000011 &
1)
b1010101 2
#635
0)
#636
b0000010 &
1)
b0101010 2
#637
0)
#638
b0000001 &
1)
b1010100 2
#639
0)
#640
b0000000 &
1)
b0101000 2
b00000000000000000000000000000010 4
#641
0)
#642
1$
b0100111 &
b00000000000000000000000000000010 '
1)
b1010000 2
13
b00000000000000000000000000000000 4
b00000000000000000000000000000000 5
#643
0)
#644
0$
b0100110 &
b00000000000000000000000000000000 '
b00000000000000000000000000000000 (
1)
1+
b00000000 /
10
01
b0100001 2
03
#645
0)
#646
b11100 %
b0100101 &
1)
b1000010 2
#647
0)
#648
b11011 %
b0100100 &
1)
b0000101 2
#649
0)
#650
b11010 %
b0100011 &
1)
b0001011 2
#651
0)
#652
b11001 %
b0100010 &
1)
b0010110 2
#653
0)
#654
b11000 %
b0100001 &
1)
b0101101 2
#655
0)
#656
b10111 %
b0100000 &
1)
b1011011 2
#657
0)
#658
b10110 %
b0011111 &
1)
b0110111 2
#659
0)
#660
b10101 %
b0011110 &
1)
b1101111 2
#661
0)
#662
b10100 %
b0011101 &
1)
b1011110 2
#663
0)
#664
b10011 %
b0011100 &
1)
b0111100 2
#665
0)
#666
b10010 %
b0011011 &
1)
b1111001 2
#667
0)
#668
b10001 %
b0011010 &
1)
b1110011 2
#669
0)
#670
b10000 %
b0011001 &
1)
b1100111 2
#671
0)
#672
b01111 %
b0011000 &
1)
b1001110 2
#673
0)
#674
b01110 %
b0010111 &
1)
b0011100 2
#675
0)
#676
b01101 %
b0010110 &
1)
b0111001 2
#677
0)
#678
b01100 %
b0010101 &
1)
b1110010 2
#679
0)
#680
b01011 %
b0010100 &
1)
b1100101 2
#681
0)
#682
b01010 %
b0010011 &
1)
b1001010 2
#683
0)
#684
b01001 %
b0010010 &
1)
b0010101 2
#685
0)
#686
b01000 %
b0010001 &
1)
b0101011 2
#687
0)
#688
b00111 %
b0010000 &
1)
b1010110 2
#689
0)
#690
b00110 %
b0001111 &
1)
b0101100 2
#691
0)
#692
b00101 %
b0001110 &
1)
b1011001 2
#693
0)
#694
b00100 %
b0001101 &
1)
b0110011 2
#695
0)
#696
b00011 %
b0001100 &
1)
b1100110 2
#697
0)
#698
b00010 %
b0001011 &
1)
b1001100 2
#699
0)
#700
b00001 %
b0001010 &
1)
b0011000 2
#701
0)
#702
b00000 %
b0001001 &
1)
b0110000 2
#703
0)
#704
1#
b11110 %
b0001000 &
1)
b1100000 2
13
b00000000000000000000000000000001 5
#705
0)
#706
0#
b11101 %
b0000111 &
b00000000000000000000000000000001 (
1)
b00000001 /
b1000001 2
03
#707
0)
#708
b11100 %
b0000110 &
1)
b0000011 2
#709
0)
#710
b11011 %
b0000101 &
1)
b0000110 2
#711
0)
#712
b11010 %
b0000100 &
1)
b0001101 2
#713
0)
#714
b11001 %
b0000011 &
1)
b0011011 2
#715
0)
#716
b11000 %
b0000010 &
1)
b0110110 2
#717
0)
#718
b10111 %
b0000001 &
1)
b1101101 2
#719
0)
#720
b10110 %
b0000000 &
1)
b1011010 2
#721
0)
#722
b10101 %
b1011001 &
1)
b0110101 2
#723
0)
#724
b10100 %
b1011000 &
1)
b1101011 2
#725
0)
#726
b10011 %
b1010111 &
1)
b1010111 2
#727
0)
#728
b10010 %
b1010110 &
1)
b0101110 2
#729
0)
#730
b10001 %
b1010101 &
1)
b1011101 2
#731
0)
#732
b10000 %
b1010100 &
1)
b0111010 2
#733
0)
#734
b01111 %
b1010011 &
1)
b1110100 2
#735
0)
#736
b01110 %
b1010010 &
1)
b1101000 2
#737
0)
#738
b01101 %
b1010001 &
1)
b1010001 2
#739
0)
#740
b01100 %
b1010000 &
1)
b0100011 2
#741
0)
#742
b01011 %
b1001111 &
1)
b1000110 2
#743
0)
#744
b01010 %
b1001110 &
1)
b0001100 2
#745
0)
#746
b01001 %
b1001101 &
1)
b0011001 2
#747
0)
#748
b01000 %
b1001100 &
1)
b0110010 2
#749
0)
#750
b00111 %
b1001011 &
1)
b1100100 2
#751
0)
#752
b00110 %
b1001010 &
1)
b1001000 2
#753
0)
#754
b00101 %
b1001001 &
1)
b0010001 2
#755
0)
#756
b00100 %
b1001000 &
1)
b0100010 2
#757
0)
#758
b00011 %
b1000111 &
1)
b1000100 2
#759
0)
#760
b00010 %
b1000110 &
1)
b0001000 2
#761
0)
#762
b00001 %
b1000101 &
1)
b0010000 2
#763
0)
#764
b00000 %
b1000100 &
1)
b0100000 2
#765
0)
#766
1#
b11110 %
b1000011 &
1)
b1000000 2
13
b00000000000000000000000000000010 5
#767
0)
#768
0#
b11101 %
b1000010 &
b00000000000000000000000000000010 (
1)
b00000011 /
b0000001 2
03
#769
0)
#770
b11100 %
b1000001 &
1)
b0000010 2
#771
0)
#772
b11011 %
b1000000 &
1)
b0000100 2
#773
0)
#774
b11010 %
b0111111 &
1)
b0001001 2
#775
0)
#776
b11001 %
b0111110 &
1)
b0010010 2
#777
0)
#778
b11000 %
b0111101 &
1)
b0100100 2
#779
0)
#780
b10111 %
b0111100 &
1)
b1001001 2
#781
0)
#782
b10110 %
b0111011 &
1)
b0010011 2
#783
0)
#784
b10101 %
b0111010 &
1)
b0100110 2
#785
0)
#786
b10100 %
b0111001 &
1)
b1001101 2
#787
0)
#788
b10011 %
b0111000 &
1)
b0011010 2
#789
0)
#790
b10010 %
b0110111 &
1)
b0110100 2
#791
0)
#792
b10001 %
b0110110 &
1)
b1101001 2
#793
0)
#794
b10000 %
b0110101 &
1)
b1010011 2
#795
0)
#796
b01111 %
b0110100 &
1)
b0100111 2
#797
0)
#798
b01110 %
b0110011 &
1)
b1001111 2
#799
0)
#800
b01101 %
b0110010 &
1)
b0011110 2
#801
0)
#802
b01100 %
b0110001 &
1)
b0111101 2
#803
0)
#804
b01011 %
b0110000 &
1)
b1111011 2
#805
0)
#806
b01010 %
b0101111 &
1)
b1110111 2
#807
0)
#808
b01001 %
b0101110 &
1)
b1101110 2
#809
0)
#810
b01000 %
b0101101 &
1)
b1011100 2
#811
0)
#812
b00111 %
b0101100 &
1)
b0111000 2
#813
0)
#814
b00110 %
b0101011 &
1)
b1110000 2
#815
0)
#816
b00101 %
b0101010 &
1)
b1100001 2
#817
0)
#818
b00100 %
b0101001 &
1)
b1000011 2
#819
0)
#820
b00011 %
b0101000 &
1)
b0000111 2
#821
0)
#822
b00010 %
b0100111 &
1)
b0001111 2
#823
0)
#824
b00001 %
b0100110 &
1)
b0011111 2
#825
0)
#826
b00000 %
b0100101 &
1)
b0111111 2
#827
0)
#828
1#
b11110 %
b0100100 &
1)
b1111111 2
13
b00000000000000000000000000000011 5
#829
0)
#830
0#
b11101 %
b0100011 &
b00000000000000000000000000000011 (
1)
b00000111 /
b1111110 2
03
#831
0)
#832
b11100 %
b0100010 &
1)
b1111100 2
#833
0)
#834
b11011 %
b0100001 &
1)
b1111000 2
#835
0)
#836
b11010 %
b0100000 &
1)
b1110001 2
#837
0)
#838
b11001 %
b0011111 &
1)
b1100011 2
#839
0)
#840
b11000 %
b0011110 &
1)
b1000111 2
#841
0)
#842
b10111 %
b0011101 &
1)
b0001110 2
#843
0)
#844
b10110 %
b0011100 &
1)
b0011101 2
#845
0)
